ID,CardType,Name,Subtitle,CardClass,StatusEffects,Armor,Structure,Power,Accuracy,Damage,RangeMin,RangeMax,Shield,Rest,Special,CrewCost,Speed,SmallImg,LargeImg,Date Entered
38,Compartment,Vanilla,,Autocannon,,7,6,3,3,2,3,5,0,0,false,0,0,,,6/6/2013 3:00:16 PM
39,Compartment,Close,,Autocannon,,7,6,4,3,2,2,5,0,0,false,0,0,,,6/6/2013 3:00:59 PM
40,Compartment,Hardened,,Autocannon,,8,7,3,2,2,3,5,0,0,false,0,0,,,6/6/2013 3:01:43 PM
41,Compartment,Heavy,,Autocannon,,7,6,5,3,3,3,5,0,0,false,0,0,,,6/6/2013 3:02:14 PM
42,Compartment,Accurate,,Autocannon,,6,6,4,4,2,4,5,0,0,false,0,0,,,6/6/2013 3:02:36 PM
43,Compartment,Punishing,,Autocannon,,7,6,7,2,4,5,5,0,0,false,0,0,,,6/6/2013 3:03:01 PM
44,Compartment,CNI,,Autocannon,"Damage: The next battery, autocannon, or turret to target the {} or support craft rolls 2d10 and keeps the best",6,6,3,3,0,3,5,0,0,false,0,0,,,6/6/2013 3:05:57 PM
45,Compartment,Twin-linked,,Autocannon,Roll 2d10 to hit and take best,7,6,5,3,2,3,5,0,0,false,0,0,,,6/7/2013 7:09:05 PM
46,Compartment,Bracketing,,Autocannon,"Fire twice at same target, if both shots hit deal 1 extra damage.",7,6,6,3,1,4,5,0,0,false,0,0,,,6/7/2013 7:10:31 PM
47,Compartment,Big Bracketing,,Autocannon,"Fire three times at same target, if all three shots hit deal 1 extra damage.",7,6,9,3,1,4,5,0,0,false,0,0,,,6/7/2013 7:49:10 PM
48,Compartment,Exotic,,Autocannon,Cannot be REPAIRED,7,5,2,3,3,3,5,0,0,false,0,0,,,6/7/2013 7:51:01 PM
49,Compartment,Repairing,,Autocannon,Repairs one SV during the REPAIR STEP,7,7,4,3,2,3,5,0,0,false,0,0,,,6/7/2013 7:52:46 PM
50,Compartment,A-Bomber,,Autocannon,Accuracy & Damage:  +1 accy and +1 damage vs bombers,8,6,4,3,1,2,5,0,0,false,0,0,,,6/7/2013 7:54:41 PM
51,Compartment,A-Fighter,,Autocannon,+1 accy and +1 damage vs fighters,7,6,4,3,1,2,5,0,0,false,0,0,,,6/7/2013 7:56:44 PM
52,Compartment,A-Ordnance,,Autocannon,+1 accy and +1 damage vs assault craft,7,6,4,3,1,2,5,0,0,false,0,0,,,6/7/2013 7:57:51 PM
53,Compartment,Fast Firing,,Autocannon,"Fire again at target with 1 accy, then again at 0 accy.",7,6,4,2,1,4,5,0,0,false,0,0,,,6/7/2013 7:59:39 PM
54,Compartment,RBG,,Autocannon,Cannot be fired more than once a turn.,7,6,6,0,4,4,5,0,0,false,0,0,,,6/7/2013 8:05:09 PM
55,Compartment,Deep,,Autocannon,Bombers cannot attack or damage this.,7,6,4,3,2,3,5,0,0,false,0,0,,,6/7/2013 8:07:21 PM
56,Compartment,Multi-target,,Autocannon,"On a hit, you may take a second shot against a second legal target within one space of the first target",7,6,5,3,2,3,5,0,0,false,0,0,,,6/7/2013 8:10:52 PM
57,Compartment,Plasma Thrower,,Autocannon,Deals 1 damage on a miss.,7,6,5,3,2,4,5,0,0,false,0,0,,,6/7/2013 8:14:58 PM
58,Compartment,Savage,,Autocannon,Deals 2 extra damage on a critical hit.,7,6,4,3,3,3,5,0,0,false,0,0,,,6/7/2013 8:21:09 PM
59,Compartment,Vanilla,,Battery,,7,6,4,3,3,0,0,0,0,false,0,0,,,6/7/2013 8:29:13 PM
60,Compartment,Accurate,,Battery,,7,6,5,4,3,0,0,0,0,false,0,0,,,6/7/2013 8:29:46 PM
61,Compartment,Hardened,,Battery,,8,7,4,2,3,0,0,0,0,false,0,0,,,6/7/2013 8:30:20 PM
62,Compartment,Heavy,,Battery,,7,6,6,3,4,0,0,0,0,false,0,0,,,6/7/2013 8:31:05 PM
63,Compartment,Precise,,Battery,,6,6,6,5,3,0,0,0,0,false,0,0,,,6/7/2013 8:31:53 PM
64,Compartment,Really Big,,Battery,,8,6,10,2,6,0,0,0,0,false,0,0,,,6/7/2013 8:33:45 PM
65,Compartment,CNI,,Battery,Next battery or autocannon to fire on the struck {} rolls 2d10 and takes the best,6,6,3,3,0,0,0,0,0,false,0,0,,,6/7/2013 8:38:43 PM
75,Compartment,Hummingbird,Twin-Linked,Turret,"When rolling to hit, roll two dice and take the better result",8,7,3,3,1,1,3,0,0,false,0,0,Compartment1_min.png,Compartment1.png,8/22/2013 12:48:14 PM
76,Compartment,Demon,,Reactor,,9,9,0,0,0,0,0,0,14,false,0,0,Compartment2_min.png,Compartment2.png,8/22/2013 12:48:52 PM
77,Compartment,Sniper,,Turret,,8,7,2,4,1,1,4,0,0,false,0,0,Compartment3_min.png,Compartment3.png,8/22/2013 12:49:37 PM
78,Compartment,Castle,,Turret,,8,7,1,3,1,1,3,0,0,false,0,0,Compartment4_min.png,Compartment4.png,8/22/2013 12:50:00 PM
79,Compartment,Angel,,Shield Generator,Restores up to two shields each turn,8,8,0,0,0,0,0,2,0,false,0,0,Compartment5_min.png,Compartment5.png,8/22/2013 12:50:53 PM
80,Compartment,Incinerator,Plasma Weapons,Turret,This turret still deals one damage on a missed attack.,8,7,5,2,2,1,2,0,0,false,0,0,Compartment6_min.png,Compartment6.png,8/22/2013 12:52:31 PM
81,Compartment,Hellthorn,,Autocannon,,7,6,3,3,2,3,7,0,0,false,0,0,Compartment7_min.png,Compartment7.png,8/22/2013 1:48:08 PM
82,Compartment,Cherub,,Shield Booster,Increase your maximum shields by one,7,6,0,0,0,0,0,0,0,true,0,0,Compartment8_min.png,Compartment8.png,8/22/2013 2:11:58 PM
83,Compartment,Horizon Mining Laser,,Battery,The Horizon can only be fired a unshielded compartments but automatically hits.  Do not roll to hit.,7,6,5,999,1,0,0,0,0,false,0,0,Compartment9_min.png,Compartment9.png,8/22/2013 2:47:16 PM
84,Compartment,Hammer,,Battery,,7,6,0,3,3,0,0,0,0,false,0,0,Compartment10_min.png,Compartment10.png,8/22/2013 2:48:18 PM
85,Compartment,Imp,,Reactor Booster,Your reactor generates an additional two power each turn,7,6,0,0,0,0,0,0,0,true,0,0,Compartment11_min.png,Compartment11.png,8/22/2013 2:51:55 PM
86,Compartment,Geddon Cannon,World Killer,Battery,Attacks EVERY compartment.  Roll to hit each compartment separately.,8,6,10,1,1,0,0,0,0,false,0,0,Compartment13_min.png,Compartment13.png,8/22/2013 2:54:52 PM
87,Compartment,Wildfire Cannon,Plasma Weapon,Battery,This battery still deals one damage on a missed attack.,7,6,6,3,3,0,0,0,0,false,0,0,Compartment10_min.png,Compartment10.png,8/22/2013 2:57:18 PM
88,Compartment,Ordnance Rack,,Ordnance Rack,,7,7,0,0,0,0,0,0,0,false,0,0,Compartment37_min.png,Compartment37.png,8/22/2013 2:58:19 PM
89,Compartment,Sledgehammer,,Battery,,7,6,6,3,4,0,0,0,0,false,0,0,Compartment15_min.png,Compartment15.png,8/22/2013 3:02:38 PM
90,Compartment,Launch Bay,,Launch Bay,,7,7,0,0,0,0,0,0,0,false,0,0,Compartment38_min.png,Compartment38.png,8/22/2013 3:03:08 PM
109,Support Craft,Raptor,,Fighter,,6,1,1,2,1,0,0,0,0,false,1,3,fighter_min.png,fighter.png,6/25/2014 8:38:06 PM
110,Support Craft,Banshee,Sensor Ghost,Fighter,May not be attacked by turrets or autocannon,6,1,3,2,1,0,0,0,0,false,1,3,fighter_min.png,fighter.png,6/25/2014 8:39:33 PM
111,Support Craft,Sabre,Hunters,Fighter,Opponents may not counterattack,6,1,3,2,1,0,0,0,0,false,1,3,fighter_min.png,fighter.png,6/25/2014 8:41:58 PM
112,Support Craft,Wasp,Drones,Fighter,"When this fighter is destroyed, put it back in your hand",6,1,4,1,1,0,0,0,0,false,0,3,fighter_min.png,fighter.png,6/25/2014 8:43:02 PM
113,Support Craft,Aegis,Personal Shields,Fighter,The Aegis has one point of shields.  Restore them during the refresh phase of your turn.,6,1,3,2,1,0,0,0,0,false,1,3,fighter_min.png,fighter.png,6/25/2014 8:45:02 PM
114,Support Craft,Athena,Elite and Irreplaceable,Fighter,"If this card is placed in your locker deck for any reason, remove it from the game.",7,3,4,3,2,0,0,0,0,false,1,4,fighter_min.png,fighter.png,6/25/2014 8:53:14 PM
115,Support Craft,Hawk,,Bomber,,7,2,1,2,1,0,0,0,0,false,1,2,fighter_min.png,fighter.png,6/25/2014 8:54:07 PM
116,Support Craft,Broadsword,,Bomber,,7,2,2,2,2,0,0,0,0,false,1,2,fighter_min.png,fighter.png,6/25/2014 8:55:21 PM
117,Support Craft,Tarantula,Plasma Weapons,Bomber,A missed attack still deals one damage,6,2,4,0,2,0,0,0,0,false,1,2,fighter_min.png,fighter.png,6/25/2014 8:56:40 PM
118,Support Craft,Hornet,Drones,Bomber,"When this bomber is destroyed, put it back in your hand",7,2,4,1,1,0,0,0,0,false,0,2,fighter_min.png,fighter.png,6/25/2014 8:57:52 PM
119,Support Craft,Pack,,Assault Craft,,7,2,1,0,0,0,0,0,0,false,1,2, assaultcraft_min.png, assaultcraft.png,6/26/2014 9:12:20 AM
120,Support Craft,Wraith,Sensor Ghost,Assault Craft,May not be attacked by turrets or autocannon,6,2,3,0,0,0,0,0,0,false,1,2, assaultcraft_min.png, assaultcraft.png,6/26/2014 9:14:31 AM
121,Compartment,Cutlass,Hardened Veterens,Assault Craft,Place two raiders in the same compartment,6,2,2,0,0,0,0,0,0,false,1,2, assaultcraft_min.png, assaultcraft.png,6/26/2014 9:16:53 AM
122,Support Craft,Host,Nanite Gas,Assault Craft,Deal one damage to the compartment you deliver raiders to,6,2,0,0,0,0,0,0,0,false,1,2, assaultcraft_min.png, assaultcraft.png,6/26/2014 9:18:11 AM
123,Support Craft,Grindstone,Tunneling,Assault Craft,"When you deliver raiders, place one raider in both",6,2,2,0,0,0,0,0,0,false,1,2, assaultcraft_min.png, assaultcraft.png,6/26/2014 9:19:56 AM
124,Support Craft,Raccoon,Data Thieves,Assault Craft,When you deliver raiders your opponent must show you their hand.  Choose one card from it and remove it for the game,6,2,2,0,0,0,0,0,0,false,1,2, assaultcraft_min.png, assaultcraft.png,6/26/2014 9:20:51 AM
125,Support Craft,Bulwark,Personal Shields,Bomber,The Bulwark has one point of shields.  Restore them during the refresh phase of your team,7,2,3,2,1,0,0,0,0,false,1,2,bomber_min.png,bomber.png,6/26/2014 9:23:02 AM
126,Ordnance,Raven,,Torpedoes,,8,2,4,5,2,0,0,0,0,false,0,3,torpedo_min.png,torpedo.png,6/26/2014 4:02:12 PM
127,Ordnance,Phantom,Sensor Ghost,Torpedoes,May not be attacked by turrets or autocannon,8,1,6,5,2,0,0,0,0,false,0,3,torpedo_min.png,torpedo.png,6/26/2014 4:03:24 PM
128,Ordnance,Scar,Tunneling,Torpedoes,Roll a separate attack against both compartments in the lane,8,2,6,4,2,0,0,0,0,false,0,3,torpedo_min.png,torpedo.png,6/26/2014 4:04:28 PM
129,Ordnance,Galleon,Boarding Torpedo,Torpedoes,On a hit place a raider in the compartment that was struck.,8,2,3,4,0,0,0,0,0,false,1,3,torpedo_min.png,torpedo.png,6/26/2014 4:05:59 PM
130,Ordnance,Crow,,Missiles,,6,1,2,3,2,0,0,0,0,false,0,3,missiles_min.png,missiles.png,6/26/2014 4:06:56 PM
131,Ordnance,Gambit,,Missiles,,8,1,3,3,2,0,0,0,0,false,0,3,missiles_min.png,missiles.png,6/26/2014 4:07:39 PM
132,Misfortune,Indecision,,Misfortune,Opponent loses one leadership,0,0,0,0,0,0,0,0,0,false,0,0,misfortune_min.png,misfortune.png,6/26/2014 7:33:05 PM
133,Event,Infiltraition,,Event,Move one of your raiders to a different compartment,0,0,0,0,0,0,0,0,0,false,0,0,event_min.png,event.png,6/26/2014 7:38:27 PM
134,Order,Launch! Launch! Launch!,,Orders,Support craft require 2 less power to launch this turn,0,0,0,0,0,0,0,0,0,false,0,0,order_min.png,order.png,6/26/2014 7:39:30 PM
135,Misfortune,Bad Luck,,Misfortune,Your opponent's next roll this turn is at -3,0,0,0,0,0,0,0,0,0,false,0,0,misfortune_min.png,misfortune.png,6/26/2014 7:47:56 PM
136,Misfortune,Power Fluctuations,,Misfortune,Opponent loses 2 power,0,0,0,0,0,0,0,0,0,false,0,0,misfortune_min.png,misfortune.png,6/26/2014 7:48:35 PM
137,Misfortune,Return to Refuel,,Misfortune,Opponent must exhaust all fighters or all bombers,0,0,0,0,0,0,0,0,0,false,0,0,misfortune_min.png,misfortune.png,6/26/2014 7:49:39 PM
138,Event,Ultimate Authority,,Event,You gain 2 leadership this turn. Remove this card from the game when played,0,0,0,0,0,0,0,0,0,false,0,0,event_min.png,event.png,6/26/2014 7:50:37 PM
139,Event,Power Surge,,Event,You gain four power this turn.  Remove this card from the game when played,0,0,0,0,0,0,0,0,0,false,0,0,event_min.png,event.png,6/26/2014 7:51:36 PM
140,Event,Emergency Repair,,Event,Remove one damage from any non-destroyed compartment,0,0,0,0,0,0,0,0,0,false,0,0,event_min.png,event.png,6/26/2014 7:52:26 PM
141,Event,Relentless Pursuit,,Event,Choose an exhausted fighter.  It may move and attack again,0,0,0,0,0,0,0,0,0,false,0,0,event_min.png,event.png,6/26/2014 7:53:06 PM
142,Event,Target Locked,,Event,Play on a fighter or bomber.  That craft gains one accuracy this turn,0,0,0,0,0,0,0,0,0,false,0,0,event_min.png,event.png,6/26/2014 7:54:04 PM
143,Event,Experimental Payload,,Event,Play on a bomber.  That bomber deals one bonus damage on a hit but suffers one damage if it misses its attack,0,0,0,0,0,0,0,0,0,false,0,0,event_min.png,event.png,6/26/2014 7:55:08 PM
144,Order,Cripple Them!,,Orders,Pick a compartment.  Your Batteries and Autocannon gain +1 accuracy vs that Compartment this turn.,0,0,0,0,0,0,0,0,0,false,0,0,order_min.png,order.png,6/26/2014 7:56:50 PM
145,Order,Give them a Broadside!,,Orders,Your next Battery shot this turn has +2 accuracy,0,0,0,0,0,0,0,0,0,false,0,0,order_min.png,order.png,6/26/2014 7:57:45 PM
146,Order,Vent the Compartment!,,Orders,Kill a raider of your choice and expend one crew,0,0,0,0,0,0,0,0,0,false,0,0,order_min.png,order.png,6/26/2014 7:59:41 PM
147,Order,Draw Power from Our Reserves!,,Orders,Your next Battery or Autocannon shot cost 2 less power to fire,0,0,0,0,0,0,0,0,0,false,0,0,order_min.png,order.png,6/26/2014 8:00:34 PM
148,Order,Overcharge the Main Battery!,,Orders,,0,0,0,0,0,0,0,0,0,false,0,0,order_min.png,order.png,6/26/2014 8:01:10 PM
