Name,Status Effects
Scoundrel,When you play a MISFORTUNE card you may draw a card.
Favor of the Ship,"Allows you to play two EVENT cards on  your turn instead of one.  ""The crew believes that  the ship approves of your command, and all good  luck is attributed to this.  Superstition? Or is there an  element of truth to their whispers..."""
Master Gunner,Your TURRETs add +1 to their ACCURACY rolls when firing
Master of Ordnance,When you use an ACTION to launch ORDNANCE you may draw a card.
Legendary Engineer,Add +1 to your ships repair value.
Legendary Pilot,"Your FIGHTERS gain +1 accuracy and +1 armor value when attacking or being attacked by other fighters.  ""A clone of the legendary fighter ace 'Ranger Dubois.'  To a man, every one fights to prove that he is better killer than his brethren."""
Telepath,EXHAUST this Officer to look at your opponent's hand.
Expert System,Your ship generates +2 POWER
Rogue AI,"If your opponent plays a misfortune card, you gain 2 power."
Shackled AI,During the 'Refresh: Resource' Phase of your turn roll a d10.  On a 1-2 lose 3 power.  On a 4-7 nothing happens.  On a 8-10 gain 3 power.  Sometimes it can predict the ebb and flow of the battlefield. Other times it just tries to get free.”
Kommissar,When you play an order you may draw a card. “A booming voice and a booming gun ensure that the Captain's orders are carried out.”
Assassin,"Expend a leadership and remove any number of your raiders from the enemy ship. Pick an enemy officer (not a Captain) and roll a d10, adding the number of raiders you removed to the roll. If the roll is a 10 or higher, remove that officer from the game. Also, if the die roll is a one or two before any bonuses, remove the assassin from the game."
Gambler,Exhaust this Officer and expend one power to gain +1 to any die roll. This must be declared before the die is rolled.
Psychic Parasite,If your raiders inflict damage on the opposing ship you may draw a card.  (only one card is drawn regardless of the amount of damage inflicted)
Tactical Genius,You discard one less card in your END STEP..
Minor Noble,Your hand size is increased by one.
Alien Weaponry,Your Batteries get critical hits on unmodified rolls of 9 or 10.
Master of the Watch,When rolling to kill raiders in melee a natural roll of a ten allows you to kill two raiders instead of one.
Elemental Agony,Exhaust this Officer and expend one crew.  Roll a d10.  On a 6+ you gain one power.
Elemental Fear,Exhaust this Officer and expend one crew.  Roll a d10.  On a 6+ you gain one leadership.
Elemental Harmony,Exhaust this officer.  Roll a d10.  On an 8+ you regain one crew.  (This may not take you above your starting crew total.)
